D:\workspace\ModernFGT\src\test\java\fgt\TestCaseLines.java
D:\workspace\ModernFGT\src\test\java\fgt\ExcelData.java
D:\workspace\ModernFGT\src\test\java\fgt\Utility.java
D:\workspace\ModernFGT\src\test\java\fgt\ExcelData2.java
D:\workspace\ModernFGT\src\test\java\fgt\App.java
D:\workspace\ModernFGT\src\test\java\fgt\TestcaseName.java
